%YAML 1.1
%TAG !u! tag:unity3d.com,2011:
--- !u!1045 &1
EditorBuildSettings:
  m_ObjectHideFlags: 0
  serializedVersion: 2
  m_Scenes:
  - enabled: 1
    path: Assets/MenuPrincipal.unity
    guid: 8e272c2d67467d44a808dd028c9e1cf4
  - enabled: 1
    path: Assets/SelectionNiveau.unity
    guid: 643d5b2968a4ff2429f3f2e589007fea
  - enabled: 1
    path: Assets/Tuto.unity
    guid: d0d55a85184a3504ca9be65f1949cbe7
  - enabled: 1
    path: Assets/Main.unity
    guid: eab0d9af34d45b7478eaa5afe5278d9b
  m_configObjects: {}
