%YAML 1.1
%TAG !u! tag:unity3d.com,2011:
--- !u!1 &8098564090655529204
GameObject:
  m_ObjectHideFlags: 0
  m_CorrespondingSourceObject: {fileID: 0}
  m_PrefabInstance: {fileID: 0}
  m_PrefabAsset: {fileID: 0}
  serializedVersion: 6
  m_Component:
  - component: {fileID: 3940065469208277316}
  - component: {fileID: 6121717847654285792}
  - component: {fileID: 2767506740828432603}
  - component: {fileID: 7866133689079294708}
  m_Layer: 0
  m_Name: PouvoirPaddleRapide
  m_TagString: paddleRapide
  m_Icon: {fileID: 0}
  m_NavMeshLayer: 0
  m_StaticEditorFlags: 0
  m_IsActive: 1
--- !u!4 &3940065469208277316
Transform:
  m_ObjectHideFlags: 0
  m_CorrespondingSourceObject: {fileID: 0}
  m_PrefabInstance: {fileID: 0}
  m_PrefabAsset: {fileID: 0}
  m_GameObject: {fileID: 8098564090655529204}
  m_LocalRotation: {x: 0, y: 0, z: 0, w: 1}
  m_LocalPosition: {x: 0.6184, y: -1.4475, z: 0}
  m_LocalScale: {x: 0.5, y: 0.5, z: 0.5}
  m_Children: []
  m_Father: {fileID: 0}
  m_RootOrder: 0
  m_LocalEulerAnglesHint: {x: 0, y: 0, z: 0}
--- !u!212 &6121717847654285792
SpriteRenderer:
  m_ObjectHideFlags: 0
  m_CorrespondingSourceObject: {fileID: 0}
  m_PrefabInstance: {fileID: 0}
  m_PrefabAsset: {fileID: 0}
  m_GameObject: {fileID: 8098564090655529204}
  m_Enabled: 1
  m_CastShadows: 0
  m_ReceiveShadows: 0
  m_DynamicOccludee: 1
  m_MotionVectors: 1
  m_LightProbeUsage: 1
  m_ReflectionProbeUsage: 1
  m_RenderingLayerMask: 1
  m_RendererPriority: 0
  m_Materials:
  - {fileID: 10754, guid: 0000000000000000f000000000000000, type: 0}
  m_StaticBatchInfo:
    firstSubMesh: 0
    subMeshCount: 0
  m_StaticBatchRoot: {fileID: 0}
  m_ProbeAnchor: {fileID: 0}
  m_LightProbeVolumeOverride: {fileID: 0}
  m_ScaleInLightmap: 1
  m_PreserveUVs: 0
  m_IgnoreNormalsForChartDetection: 0
  m_ImportantGI: 0
  m_StitchLightmapSeams: 0
  m_SelectedEditorRenderState: 0
  m_MinimumChartSize: 4
  m_AutoUVMaxDistance: 0.5
  m_AutoUVMaxAngle: 89
  m_LightmapParameters: {fileID: 0}
  m_SortingLayerID: 0
  m_SortingLayer: 0
  m_SortingOrder: 0
  m_Sprite: {fileID: 21300000, guid: 3035349ca79474343adfeb08cab70d34, type: 3}
  m_Color: {r: 1, g: 1, b: 1, a: 1}
  m_FlipX: 0
  m_FlipY: 0
  m_DrawMode: 0
  m_Size: {x: 3.53, y: 3.34}
  m_AdaptiveModeThreshold: 0.5
  m_SpriteTileMode: 0
  m_WasSpriteAssigned: 1
  m_MaskInteraction: 0
  m_SpriteSortPoint: 0
--- !u!114 &2767506740828432603
MonoBehaviour:
  m_ObjectHideFlags: 0
  m_CorrespondingSourceObject: {fileID: 0}
  m_PrefabInstance: {fileID: 0}
  m_PrefabAsset: {fileID: 0}
  m_GameObject: {fileID: 8098564090655529204}
  m_Enabled: 1
  m_EditorHideFlags: 0
  m_Script: {fileID: 11500000, guid: a631e37b71949e44c857c9408a0f04d1, type: 3}
  m_Name: 
  m_EditorClassIdentifier: 
  speed: 1.75
--- !u!60 &7866133689079294708
PolygonCollider2D:
  m_ObjectHideFlags: 0
  m_CorrespondingSourceObject: {fileID: 0}
  m_PrefabInstance: {fileID: 0}
  m_PrefabAsset: {fileID: 0}
  m_GameObject: {fileID: 8098564090655529204}
  m_Enabled: 1
  m_Density: 1
  m_Material: {fileID: 0}
  m_IsTrigger: 1
  m_UsedByEffector: 0
  m_UsedByComposite: 0
  m_Offset: {x: 0, y: 0}
  m_SpriteTilingProperty:
    border: {x: 0, y: 0, z: 0, w: 0}
    pivot: {x: 0.5, y: 0.5}
    oldSize: {x: 8.6, y: 4.32}
    newSize: {x: 3.53, y: 3.34}
    adaptiveTilingThreshold: 0.5
    drawMode: 0
    adaptiveTiling: 0
  m_AutoTiling: 0
  m_Points:
    m_Paths:
    - - {x: 0.585, y: -0.555}
      - {x: 0.205, y: -0.555}
      - {x: 0.16499999, y: -0.565}
      - {x: 0.16499999, y: -0.935}
      - {x: 0.175, y: -0.98499995}
      - {x: 0.285, y: -0.98499995}
      - {x: 0.405, y: -0.955}
      - {x: 0.45499998, y: -0.905}
      - {x: 0.53499997, y: -0.98499995}
      - {x: 0.625, y: -0.98499995}
      - {x: 0.705, y: -0.765}
      - {x: 0.705, y: -0.585}
      - {x: 0.655, y: -0.565}
    - - {x: 0.015, y: -0.575}
      - {x: 0.005, y: -0.59499997}
      - {x: 0.005, y: -0.905}
      - {x: 0.044999998, y: -0.935}
      - {x: 0.085, y: -0.935}
      - {x: 0.155, y: -0.91499996}
      - {x: 0.155, y: -0.59499997}
      - {x: 0.125, y: -0.575}
    - - {x: -0.255, y: -0.53499997}
      - {x: -0.33499998, y: -0.545}
      - {x: -0.405, y: -0.655}
      - {x: -0.405, y: -0.765}
      - {x: -0.385, y: -0.84499997}
      - {x: -0.315, y: -0.92499995}
      - {x: -0.095, y: -0.92499995}
      - {x: -0.015, y: -0.895}
      - {x: -0.015, y: -0.645}
      - {x: -0.055, y: -0.53499997}
    - - {x: -0.235, y: -0.21499999}
      - {x: -0.465, y: -0.185}
      - {x: -0.685, y: -0.185}
      - {x: -0.685, y: -0.91499996}
      - {x: -0.42499998, y: -0.91499996}
      - {x: -0.255, y: -0.49499997}
      - {x: -0.21499999, y: -0.415}
      - {x: -0.21499999, y: -0.265}
    - - {x: -0.235, y: -0.72499996}
      - {x: -0.21499999, y: -0.715}
      - {x: -0.205, y: -0.73499995}
      - {x: -0.225, y: -0.73499995}
    - - {x: 0.035, y: -0.36499998}
      - {x: -0.005, y: -0.385}
      - {x: -0.005, y: -0.515}
      - {x: 0.035, y: -0.53499997}
      - {x: 0.155, y: -0.53499997}
      - {x: 0.16499999, y: -0.525}
      - {x: 0.16499999, y: -0.405}
      - {x: 0.155, y: -0.36499998}
    - - {x: -0.48499998, y: -0.355}
      - {x: -0.45499998, y: -0.355}
      - {x: -0.45499998, y: -0.385}
      - {x: -0.48499998, y: -0.385}
    - - {x: 0.705, y: 0.565}
      - {x: 0.66499996, y: 0.805}
      - {x: 0.60499996, y: 0.92499995}
      - {x: 0.265, y: 0.92499995}
      - {x: 0.085, y: 0.865}
      - {x: 0.035, y: 0.755}
      - {x: 0.035, y: 0.325}
      - {x: 0.044999998, y: -0.055}
      - {x: 0.865, y: -0.055}
      - {x: 0.865, y: 0.24499999}
      - {x: 0.505, y: 0.275}
    - - {x: 0.044999998, y: -0.015}
      - {x: 0.044999998, y: 0.125}
      - {x: -0.21499999, y: 0.49499997}
      - {x: -0.055, y: 0.72499996}
      - {x: -0.265, y: 0.955}
      - {x: -0.295, y: 0.965}
      - {x: -0.815, y: 0.965}
      - {x: -0.92499995, y: 0.945}
      - {x: -1.025, y: 0.775}
      - {x: -1.025, y: 0.66499996}
      - {x: -0.825, y: 0.405}
      - {x: -1.025, y: 0.225}
      - {x: -1.025, y: 0.175}
      - {x: -0.85499996, y: -0.024999999}
      - {x: -0.79499996, y: -0.024999999}
      - {x: -0.545, y: 0.185}
      - {x: -0.315, y: -0.024999999}
      - {x: 0.024999999, y: -0.024999999}
